{
  "id": "ck6ew25wv000507mkg50w7i6h",
  "name": "jaco",
  "description": "A static website with CDN distribution",
  "created": "2020-02-09T10:32:31.305Z",
  "blueprints": [
    {
      "id": "ck6ew25wv000507mkg50w7i6h",
      "name": "jaco",
      "description": "Static Website Template",
      "version": "2019-10-24",
      "connections": {
        "ck4l9erc70002w2mpcmcc7dht": {
          "ck4l9erc70001w2mp15gvdz0m": {
            "bucketRoot": "/",
            "from": "ck4l9erc70002w2mpcmcc7dht",
            "route": "/",
            "to": "ck4l9erc70001w2mp15gvdz0m",
            "type": "connection.dependency.cdn-storage"
          }
        }
      },
      "metadata": {
        "designer": {
          "resourcePositions": {
            "ck4l9erc70001w2mp15gvdz0m": {
              "x": 800,
              "y": 350,
              "z": 0
            },
            "ck4l9erc70002w2mpcmcc7dht": {
              "x": 300,
              "y": 350,
              "z": 0
            }
          }
        }
      },
      "resources": {
        "ck4l9erc70001w2mp15gvdz0m": {
          "accessLevel": "public-read",
          "filesSources": [
            {
              "path": "public",
              "type": "files-source.project-dir"
            }
          ],
          "id": "ck4l9erc70001w2mp15gvdz0m",
          "name": "site-files",
          "type": "resource.file-store"
        },
        "ck4l9erc70002w2mpcmcc7dht": {
          "defaultRoot": "index.html",
          "domainName": "default",
          "id": "ck4l9erc70002w2mpcmcc7dht",
          "isSPA": false,
          "name": "site-cdn",
          "type": "resource.cdn"
        }
      }
    }
  ]
}
